Year,Total Crime,Sum of Total Unsolved,Sum of Total Solved,Sum of Total Aptempted,Sum of Total Completed,
2009,208,40,168,205,3,
2010,205,41,164,203,2,
2011,243,37,206,241,2,
2012,290,42,248,289,1,
2013,356,78,278,352,4,
2014,537,174,363,527,10,
2015,614,229,385,604,10,