Year,Total Crime,Sum of Total Unsolved,Sum of Total Solved,Sum of Total Aptempted,Sum of Total Completed,
2009,12509,5738,6771,10504,2005,
2010,14009,5197,8812,12185,1824,
2011,11827,6352,5475,10009,1818,
2012,14389,7611,6778,12322,2067,
2013,14863,7480,7383,12385,2478,
2014,13782,6164,7618,11846,1936,
2015,16244,6973,9271,14115,2129,